Sección 11 Modelo AHP (Analytical Hierarchy Process) | Una breve introducción a R con un enfoque financiero y administrativo
…
Leer los datos desde el archivo “ahp_con_MCDA_cl.xlsx”

library(MCDA)
library(readxl)
data <- read_excel('ahp_con_MCDA.xlsx')

## New names:
## * `` -> ...2
## * `` -> ...3
## * `` -> ...4
## * `` -> ...5

print(data)

## # A tibble: 35 x 5
##    `Critería:`   ...2        ...3  ...4  ...5 
##    <chr>         <chr>       <chr> <chr> <chr>
##  1 CR1:          Experiencia <NA>  <NA>  <NA> 
##  2 CR2:          Educación   <NA>  <NA>  <NA> 
##  3 CR3:          Carisma     <NA>  <NA>  <NA> 
##  4 CR4:          Edad        <NA>  <NA>  <NA> 
##  5 Alternativas: <NA>        <NA>  <NA>  <NA> 
##  6 ALT1:         Tom         <NA>  <NA>  <NA> 
##  7 ALT2:         Dick        <NA>  <NA>  <NA> 
##  8 ALT3:         Harry       <NA>  <NA>  <NA> 
##  9 Matrices:     <NA>        <NA>  <NA>  <NA> 
## 10 <NA>          CR 1        CR 2  CR 3  CR 4 
## # ... with 25 more rows
…
